-8 -72 -16 -24 840
-48 -72 -72 40 -8 712
-16 -40 920
8 -72 -24 864
-48 -64 -40 -32 -80 688
56 -80 80 -48 696
-72 -64 8 -40 776
992
-80 -16 -80 -64 720
-16 968
992
-8 -64 -80 -80 -48 672
-80 -32 864
-32 -56 888
88 -24 -80 -56 712
-32 -48 896
-40 944
-48 -24 -16 880
-56 -40 -40 -72 32 -24 680
64 -56 856
-8 -24 -40 -64 824
-72 -8 896
992
-16 -32 -32 -16 864
-56 8 -48 856
